\relax 
\providecommand*\new@tpo@label[2]{}
\catcode `"\active 
\catcode 95\active
\babel@aux{ngerman}{}
\@writefile{toc}{\contentsline {section}{\numberline {1}1.Erstellen der Objektb\IeC {\"a}ume}{1}}
\@writefile{toc}{\contentsline {section}{\numberline {2}2. Erste Schritte mit bindings}{2}}
\@writefile{toc}{\contentsline {section}{\numberline {3}Legen Sie die Lebenszeiten fest}{9}}
\@writefile{toc}{\contentsline {section}{\numberline {4}Anmerkungen zur Rettung}{11}}
